
            <svg xmlns="http://www.w3.org/2000/svg" xmlns:cc="http://creativecommons.org/ns#" xmlns:rdf="http://www.w3.org/1999/02/22-rdf-syntax-ns#" version="1.1" width="127.19921875" height="132.5999984741211">
              <defs>
                <style type="text/css">svg{background-color:#fff}text,tspan{font:12px Arial}path{fill-opacity:0;stroke-width:2px;stroke:#000}circle{fill:#6b6659;stroke-width:2px;stroke:#000}.anchor text,.any-character text{fill:#fff}.anchor rect,.any-character rect{fill:#6b6659}.escape text,.charset-escape text,.literal text{fill:#000}.escape rect,.charset-escape rect{fill:#bada55}.literal rect{fill:#dae9e5}.charset .charset-box{fill:#cbcbba}.subexp .subexp-label tspan,.charset .charset-label tspan,.match-fragment .repeat-label tspan{font-size:10px}.repeat-label{cursor:help}.subexp .subexp-label tspan,.charset .charset-label tspan{dominant-baseline:text-after-edge}.subexp .subexp-box{stroke:#908c83;stroke-dasharray:6,2;stroke-width:2px;fill-opacity:0}.quote{fill:#908c83}
          </style>
              </defs>
              <metadata>
                <rdf:rdf>
                  <cc:license rdf:about="http://creativecommons.org/licenses/by/3.0/">
                    <cc:permits rdf:resource="http://creativecommons.org/ns#Reproduction"></cc:permits>
                    <cc:permits rdf:resource="http://creativecommons.org/ns#Distribution"></cc:permits>
                    <cc:requires rdf:resource="http://creativecommons.org/ns#Notice"></cc:requires>
                    <cc:requires rdf:resource="http://creativecommons.org/ns#Attribution"></cc:requires>
                    <cc:permits rdf:resource="http://creativecommons.org/ns#DerivativeWorks"></cc:permits>
                  </cc:license>
                </rdf:rdf>
              </metadata>
            <desc>Created with Snap</desc><g class="root" transform="matrix(1,0,0,1,15,10)"><g class="regexp" transform="matrix(1,0,0,1,10,0)"><path d="M10,22.199999809265137q0,-10 10,-10M67.19999694824219,22.199999809265137q0,-10 -10,-10M0,56.29999923706055c10,0 10,-14.699999427795412 20,-14.699999427795412M77.19999694824219,56.29999923706055c-10,0 -10,-14.699999427795412 -20,-14.699999427795412M0,56.29999923706055c10,0 10,14.700000572204587 20,14.700000572204587M77.19999694824219,56.29999923706055c-10,0 -10,14.700000572204587 -20,14.700000572204587M10,90.39999980926514q0,10 10,10M67.19999694824219,90.39999980926514q0,10 -10,10M0,56.29999923706055q10,0 10,-10V22.199999809265137M77.19999694824219,56.29999923706055q-10,0 -10,-10V22.199999809265137M0,56.29999923706055q10,0 10,10V90.39999980926514M77.19999694824219,56.29999923706055q-10,0 -10,10V90.39999980926514"></path><g class="regexp-matches" transform="matrix(1,0,0,1,20,0)"><path d="M0,12.199999809265137h3.6M33.6,12.199999809265137H37.19999694824219M0,41.599999809265135h0M37.19999694824219,41.599999809265135H37.19999694824219M0,70.99999980926513h4.8M32.400000381469724,70.99999980926513H37.19999694824219M0,100.39999980926514h5.2M31.999999237060546,100.39999980926514H37.19999694824219"></path><g class="match match-fragment literal" transform="matrix(1,0,0,1,3.6,0)"><g class="label"><rect width="30" height="24.399999618530273" rx="3" ry="3"></rect><text x="0" y="0" transform="matrix(1,0,0,1,5,17.2)"><tspan class="quote">“</tspan><tspan>\n</tspan><tspan class="quote">”</tspan></text></g></g><g class="match match-fragment literal" transform="matrix(1,0,0,1,0,29.4)"><g class="label"><rect width="37.19999885559082" height="24.399999618530273" rx="3" ry="3"></rect><text x="0" y="0" transform="matrix(1,0,0,1,5,17.2)"><tspan class="quote">“</tspan><tspan>\r\n</tspan><tspan class="quote">”</tspan></text></g></g><g class="match match-fragment literal" transform="matrix(1,0,0,1,4.8,58.8)"><g class="label"><rect width="27.600000381469727" height="24.399999618530273" rx="3" ry="3"></rect><text x="0" y="0" transform="matrix(1,0,0,1,5,17.2)"><tspan class="quote">“</tspan><tspan>\r</tspan><tspan class="quote">”</tspan></text></g></g><g class="match match-fragment literal" transform="matrix(1,0,0,1,5.2,88.2)"><g class="label"><rect width="26.799999237060547" height="24.399999618530273" rx="3" ry="3"></rect><text x="0" y="0" transform="matrix(1,0,0,1,5,17.2)"><tspan class="quote">“</tspan><tspan>\f</tspan><tspan class="quote">”</tspan></text></g></g></g></g><path d="M10,56.29999923706055H0M87.19921875,56.29999923706055H97.19921875"></path><circle cx="0" cy="56.29999923706055" r="5"></circle><circle cx="97.19921875" cy="56.29999923706055" r="5"></circle></g></svg>
          