
            <svg xmlns="http://www.w3.org/2000/svg" xmlns:cc="http://creativecommons.org/ns#" xmlns:rdf="http://www.w3.org/1999/02/22-rdf-syntax-ns#" version="1.1" width="790.0016479492188" height="64.3984375">
              <defs>
                <style type="text/css">svg{background-color:#fff}text,tspan{font:12px Arial}path{fill-opacity:0;stroke-width:2px;stroke:#000}circle{fill:#6b6659;stroke-width:2px;stroke:#000}.anchor text,.any-character text{fill:#fff}.anchor rect,.any-character rect{fill:#6b6659}.escape text,.charset-escape text,.literal text{fill:#000}.escape rect,.charset-escape rect{fill:#bada55}.literal rect{fill:#dae9e5}.charset .charset-box{fill:#cbcbba}.subexp .subexp-label tspan,.charset .charset-label tspan,.match-fragment .repeat-label tspan{font-size:10px}.repeat-label{cursor:help}.subexp .subexp-label tspan,.charset .charset-label tspan{dominant-baseline:text-after-edge}.subexp .subexp-box{stroke:#908c83;stroke-dasharray:6,2;stroke-width:2px;fill-opacity:0}.quote{fill:#908c83}
          </style>
              </defs>
              <metadata>
                <rdf:rdf>
                  <cc:license rdf:about="http://creativecommons.org/licenses/by/3.0/">
                    <cc:permits rdf:resource="http://creativecommons.org/ns#Reproduction"></cc:permits>
                    <cc:permits rdf:resource="http://creativecommons.org/ns#Distribution"></cc:permits>
                    <cc:requires rdf:resource="http://creativecommons.org/ns#Notice"></cc:requires>
                    <cc:requires rdf:resource="http://creativecommons.org/ns#Attribution"></cc:requires>
                    <cc:permits rdf:resource="http://creativecommons.org/ns#DerivativeWorks"></cc:permits>
                  </cc:license>
                </rdf:rdf>
              </metadata>
            <desc>Created with Snap</desc><g class="root" transform="matrix(1,0,0,1,15,10)"><g class="regexp match" transform="matrix(1,0,0,1,10,0)"><path d="M47.599998474121094,22.199999809265137H57.6M137.20000610351562,22.199999809265137H147.2M224.4000045776367,22.199999809265137H234.4M258.8000015258789,22.199999809265137H283.8M443.40000915527344,22.199999809265137H468.4016M525.6016007629394,22.199999809265137H535.6016M560.0016015258789,22.199999809265137H570.0016M594.401601525879,22.199999809265137H604.4016M705.6016045776367,22.199999809265137H715.6016"></path><g class="match-fragment subexp regexp match literal" transform="matrix(1,0,0,1,0,10)"><g class="label"><rect width="47.599998474121094" height="24.399999618530273" rx="3" ry="3"></rect><text x="0" y="0" transform="matrix(1,0,0,1,5,17.2)"><tspan class="quote">“</tspan><tspan>mixin</tspan><tspan class="quote">”</tspan></text></g></g><g class="match-fragment literal" transform="matrix(1,0,0,1,57.6,10)"><g class="label"><rect width="79.60000610351562" height="24.399999618530273" rx="3" ry="3"></rect><text x="0" y="0" transform="matrix(1,0,0,1,5,17.2)"><tspan class="quote">“</tspan><tspan>whitespace</tspan><tspan class="quote">”</tspan></text></g></g><g class="match-fragment subexp regexp match literal" transform="matrix(1,0,0,1,147.2,10)"><g class="label"><rect width="77.20000457763672" height="24.399999618530273" rx="3" ry="3"></rect><text x="0" y="0" transform="matrix(1,0,0,1,5,17.2)"><tspan class="quote">“</tspan><tspan>ident-token</tspan><tspan class="quote">”</tspan></text></g></g><g class="match-fragment literal" transform="matrix(1,0,0,1,234.4,10)"><g class="label"><rect width="24.40000057220459" height="24.399999618530273" rx="3" ry="3"></rect><text x="0" y="0" transform="matrix(1,0,0,1,5,17.2)"><tspan class="quote">“</tspan><tspan>(</tspan><tspan class="quote">”</tspan></text></g></g><g class="match-fragment" transform="matrix(1,0,0,1,268.8,0)"><path d="M0,22.199999809265137q10,0 10,-10v-2.1999998092651367q0,-10 10,-10h149.60000610351562q10,0 10,10v2.1999998092651367q0,10 10,10M15,22.199999809265137q-10,0 -10,10v2.1999998092651367q0,10 10,10h159.60000610351562q10,0 10,-10v-2.1999998092651367q0,-10 -10,-10M184.60000610351562,37.19999980926514l5,-5m-5,5l-5,-5"></path><g class="subexp regexp match" transform="matrix(1,0,0,1,15,10)"><path d="M57.20000076293945,12.199999809265137H67.2"></path><g class="match-fragment literal" transform="matrix(1,0,0,1,0,0)"><g class="label"><rect width="57.20000076293945" height="24.399999618530273" rx="3" ry="3"></rect><text x="0" y="0" transform="matrix(1,0,0,1,5,17.2)"><tspan class="quote">“</tspan><tspan>*-token</tspan><tspan class="quote">”</tspan></text></g></g><g class="match-fragment subexp regexp match literal" transform="matrix(1,0,0,1,67.2,0)"><g class="label"><rect width="92.40000915527344" height="24.399999618530273" rx="3" ry="3"></rect><text x="0" y="0" transform="matrix(1,0,0,1,5,17.2)"><tspan class="quote">“</tspan><tspan>comma-token</tspan><tspan class="quote">”</tspan></text></g></g></g></g><g class="match-fragment subexp regexp match literal" transform="matrix(1,0,0,1,468.4016,10)"><g class="label"><rect width="57.20000076293945" height="24.399999618530273" rx="3" ry="3"></rect><text x="0" y="0" transform="matrix(1,0,0,1,5,17.2)"><tspan class="quote">“</tspan><tspan>*-token</tspan><tspan class="quote">”</tspan></text></g></g><g class="match-fragment literal" transform="matrix(1,0,0,1,535.6016,10)"><g class="label"><rect width="24.40000057220459" height="24.399999618530273" rx="3" ry="3"></rect><text x="0" y="0" transform="matrix(1,0,0,1,5,17.2)"><tspan class="quote">“</tspan><tspan>)</tspan><tspan class="quote">”</tspan></text></g></g><g class="match-fragment subexp regexp match literal" transform="matrix(1,0,0,1,570.0016,10)"><g class="label"><rect width="24.40000057220459" height="24.399999618530273" rx="3" ry="3"></rect><text x="0" y="0" transform="matrix(1,0,0,1,5,17.2)"><tspan class="quote">“</tspan><tspan>{</tspan><tspan class="quote">”</tspan></text></g></g><g class="match-fragment subexp regexp match literal" transform="matrix(1,0,0,1,604.4016,10)"><g class="label"><rect width="101.20000457763672" height="24.399999618530273" rx="3" ry="3"></rect><text x="0" y="0" transform="matrix(1,0,0,1,5,17.2)"><tspan class="quote">“</tspan><tspan>Declaration List</tspan><tspan class="quote">”</tspan></text></g></g><g class="match-fragment literal" transform="matrix(1,0,0,1,715.6016,10)"><g class="label"><rect width="24.40000057220459" height="24.399999618530273" rx="3" ry="3"></rect><text x="0" y="0" transform="matrix(1,0,0,1,5,17.2)"><tspan class="quote">“</tspan><tspan>}</tspan><tspan class="quote">”</tspan></text></g></g></g><path d="M10,22.199999809265137H0M750.0016015258789,22.199999809265137H760.0016479492188"></path><circle cx="0" cy="22.199999809265137" r="5"></circle><circle cx="760.0016479492188" cy="22.199999809265137" r="5"></circle></g></svg>
          