\relax 
\providecommand\hyper@newdestlabel[2]{}
\providecommand*{\memsetcounter}[2]{}
\catcode `"\active 
\catcode `-\active 
\providecommand\HyperFirstAtBeginDocument{\AtBeginDocument}
\HyperFirstAtBeginDocument{\ifx\hyper@anchor\@undefined
\global\let\oldcontentsline\contentsline
\gdef\contentsline#1#2#3#4{\oldcontentsline{#1}{#2}{#3}}
\global\let\oldnewlabel\newlabel
\gdef\newlabel#1#2{\newlabelxx{#1}#2}
\gdef\newlabelxx#1#2#3#4#5#6{\oldnewlabel{#1}{{#2}{#3}}}
\AtEndDocument{\ifx\hyper@anchor\@undefined
\let\contentsline\oldcontentsline
\let\newlabel\oldnewlabel
\fi}
\fi}
\global\let\hyper@last\relax 
\gdef\HyperFirstAtBeginDocument#1{#1}
\providecommand\HyField@AuxAddToFields[1]{}
\providecommand\HyField@AuxAddToCoFields[2]{}
\select@language{czech}
\@writefile{toc}{\select@language{czech}}
\@writefile{lof}{\select@language{czech}}
\@writefile{lot}{\select@language{czech}}
\select@language{czech}
\@writefile{toc}{\select@language{czech}}
\@writefile{lof}{\select@language{czech}}
\@writefile{lot}{\select@language{czech}}
\@writefile{toc}{\contentsline {subsection}{Odkaz na tuto pr{\' a}ci}{viii}{Doc-Start}}
\citation{wc}
\citation{wc}
\citation{wc}
\citation{wc}
\citation{wc}
\citation{wc}
\citation{wc}
\citation{wc}
\citation{wc}
\citation{dp}
\citation{dp}
\@writefile{lof}{\addvspace {10\p@ }}
\@writefile{lot}{\addvspace {10\p@ }}
\@writefile{logr}{\addvspace {10\p@ }}
\@writefile{toc}{\contentsline {chapter}{{\' U}vod}{3}{chapter*.2}}
\citation{css}
\citation{hstyle}
\citation{Style}
\@writefile{lof}{\addvspace {10\p@ }}
\@writefile{lot}{\addvspace {10\p@ }}
\@writefile{logr}{\addvspace {10\p@ }}
\@writefile{toc}{\contentsline {chapter}{\chapternumberline {1}CSS - Cascading Style Sheets}{5}{chapter.1}}
\@writefile{lol}{\contentsline {lstlisting}{\numberline {1.1}Nastav\IeC {\'\i } velikost p\IeC {\'\i }sma v\IeC {\v s}ech \textsf  {article} element\IeC {\r u} na 10 pixel\IeC {\r u}}{5}{lstlisting.1.1}}
\@writefile{toc}{\contentsline {section}{\numberline {1.1}Vyu\IeC {\v z}it\IeC {\'\i }}{5}{section.1.1}}
\@writefile{lol}{\contentsline {lstlisting}{\numberline {1.2}N\IeC {\'a}sleduj\IeC {\'\i }c\IeC {\'\i } text se zobraz\IeC {\'\i } v~tu\IeC {\v c}n\IeC {\'e}m zv\IeC {\'y}razn\IeC {\v e}n\IeC {\'\i }, ani\IeC {\v z} by byl pro strukturu dokumentu n\IeC {\v e}jak v\IeC {\'y}znamn\IeC {\'y}.}{5}{lstlisting.1.2}}
\citation{Style}
\@writefile{toc}{\contentsline {section}{\numberline {1.2}Syntaxe}{6}{section.1.2}}
\@writefile{lol}{\contentsline {lstlisting}{\numberline {1.3}P\IeC {\v r}\IeC {\'\i }klad CSS pravidla}{6}{lstlisting.1.3}}
\@writefile{toc}{\contentsline {subsection}{\numberline {1.2.1}Napojen\IeC {\'\i } kask\IeC {\'a}dov\IeC {\'y}ch styl\IeC {\r u} na HTML str\IeC {\'a}nku}{6}{subsection.1.2.1}}
\@writefile{lol}{\contentsline {lstlisting}{\numberline {1.4}Um\IeC {\'\i }st\IeC {\v e}n\IeC {\'\i } do style elementu}{6}{lstlisting.1.4}}
\@writefile{lol}{\contentsline {lstlisting}{\numberline {1.5}Style atribut}{6}{lstlisting.1.5}}
\@writefile{lol}{\contentsline {lstlisting}{\numberline {1.6}Element link}{6}{lstlisting.1.6}}
\citation{Style}
\@writefile{lol}{\contentsline {lstlisting}{\numberline {1.7}Hlavi\IeC {\v c}ka pro extern\IeC {\'\i } soubor}{7}{lstlisting.1.7}}
\@writefile{toc}{\contentsline {section}{\numberline {1.3}Verze}{7}{section.1.3}}
\@writefile{toc}{\contentsline {subsection}{\numberline {1.3.1}CSS verze 1}{7}{subsection.1.3.1}}
\@writefile{toc}{\contentsline {subsection}{\numberline {1.3.2}CSS verze 2}{7}{subsection.1.3.2}}
\@writefile{toc}{\contentsline {subsection}{\numberline {1.3.3}CSS verze 2.1}{7}{subsection.1.3.3}}
\@writefile{toc}{\contentsline {subsection}{\numberline {1.3.4}CSS verze 3}{7}{subsection.1.3.4}}
\@writefile{toc}{\contentsline {subsection}{\numberline {1.3.5}CSS verze 4}{7}{subsection.1.3.5}}
\@writefile{toc}{\contentsline {section}{\numberline {1.4}V\IeC {\'y}hody}{8}{section.1.4}}
\@writefile{toc}{\contentsline {section}{\numberline {1.5}Nev\IeC {\'y}hody}{8}{section.1.5}}
\citation{sassless}
\citation{sass}
\citation{less}
\@writefile{lof}{\addvspace {10\p@ }}
\@writefile{lot}{\addvspace {10\p@ }}
\@writefile{logr}{\addvspace {10\p@ }}
\@writefile{toc}{\contentsline {chapter}{\chapternumberline {2}Preprocesor}{9}{chapter.2}}
\@writefile{toc}{\contentsline {section}{\numberline {2.1}Existuj\IeC {\'\i }c\IeC {\'\i } n\IeC {\'a}stroje}{9}{section.2.1}}
\@writefile{toc}{\contentsline {section}{\numberline {2.2}V\IeC {\'y}hody n\IeC {\'a}stroj\IeC {\r u} SASS a LESS oproti jazyku CSS}{9}{section.2.2}}
\@writefile{toc}{\contentsline {section}{\numberline {2.3}Nedostatky existuj\IeC {\'\i }c\IeC {\'\i }ch n\IeC {\'a}stroj\IeC {\r u}}{9}{section.2.3}}
\@writefile{toc}{\contentsline {section}{\numberline {2.4}Po\IeC {\v z}adavky na preprocesor}{10}{section.2.4}}
\newlabel{pozpreprocesoru}{{\M@TitleReference {2.4}{Preprocesor}}{10}{Požadavky na preprocesor}{section.2.4}{}}
\@writefile{toc}{\contentsline {subsection}{\numberline {2.4.1}Jazyk roz\IeC {\v s}i\IeC {\v r}uj\IeC {\'\i }c\IeC {\'\i } CSS}{10}{subsection.2.4.1}}
\@writefile{toc}{\contentsline {subsubsection}{\numberline {2.4.1.1}U\IeC {\v z}ivatelsk\IeC {\'e} prom\IeC {\v e}nn\IeC {\'e}}{10}{subsubsection.2.4.1.1}}
\@writefile{toc}{\contentsline {subsubsection}{\numberline {2.4.1.2}U\IeC {\v z}ivatelsk\IeC {\'e} funkce}{10}{subsubsection.2.4.1.2}}
\@writefile{toc}{\contentsline {subsubsection}{\numberline {2.4.1.3}D\IeC {\v e}di\IeC {\v c}nost}{10}{subsubsection.2.4.1.3}}
\@writefile{toc}{\contentsline {subsubsection}{\numberline {2.4.1.4}Vno\IeC {\v r}ov\IeC {\'a}n\IeC {\'\i }}{10}{subsubsection.2.4.1.4}}
\citation{colortheory}
\citation{Style}
\@writefile{toc}{\contentsline {subsubsection}{\numberline {2.4.1.5}Vyj\IeC {\'\i }m\IeC {\'a}n\IeC {\'\i } vlastnost\IeC {\'\i }}{11}{subsubsection.2.4.1.5}}
\@writefile{toc}{\contentsline {subsubsection}{\numberline {2.4.1.6}Barevn\IeC {\'e} palety a barevn\IeC {\'e} funkce}{11}{subsubsection.2.4.1.6}}
\@writefile{toc}{\contentsline {subsubsection}{\numberline {2.4.1.7}Barevn\IeC {\'e} t\IeC {\'o}nov\IeC {\'a}n\IeC {\'\i } fotek a jin\IeC {\'e} manipulace s~obr\IeC {\'a}zky}{11}{subsubsection.2.4.1.7}}
\citation{formal}
\@writefile{lof}{\addvspace {10\p@ }}
\@writefile{lot}{\addvspace {10\p@ }}
\@writefile{logr}{\addvspace {10\p@ }}
\@writefile{toc}{\contentsline {chapter}{\chapternumberline {3}N\IeC {\'a}vrh preprocesoru}{13}{chapter.3}}
\@writefile{toc}{\contentsline {section}{\numberline {3.1}Form\IeC {\'a}ln\IeC {\'\i } definice}{13}{section.3.1}}
\@writefile{toc}{\contentsline {subsection}{\numberline {3.1.1}Form\IeC {\'a}ln\IeC {\'\i } jazyk}{13}{subsection.3.1.1}}
\@writefile{toc}{\contentsline {subsection}{\numberline {3.1.2}Form\IeC {\'a}ln\IeC {\'\i } gramatika}{13}{subsection.3.1.2}}
\citation{ast}
\citation{css}
\@writefile{toc}{\contentsline {subsection}{\numberline {3.1.3}Syntaktick\IeC {\'y} strom}{14}{subsection.3.1.3}}
\@writefile{toc}{\contentsline {section}{\numberline {3.2}Mechanismus fungov\IeC {\'a}n\IeC {\'\i } preprocesoru}{14}{section.3.2}}
\@writefile{toc}{\contentsline {subsection}{\numberline {3.2.1}Nastaven\IeC {\'\i } preprocesoru}{14}{subsection.3.2.1}}
\newlabel{nast}{{\M@TitleReference {3.2.1}{N\IeC {\'a}vrh preprocesoru}}{14}{Nastavení preprocesoru}{subsection.3.2.1}{}}
\citation{css}
\citation{css}
\@writefile{toc}{\contentsline {subsection}{\numberline {3.2.2}Tokenizace}{15}{subsection.3.2.2}}
\newlabel{tok}{{\M@TitleReference {3.2.2}{N\IeC {\'a}vrh preprocesoru}}{15}{Tokenizace}{subsection.3.2.2}{}}
\@writefile{toc}{\contentsline {subsubsection}{\numberline {3.2.2.1}Definice pojm\IeC {\r u}}{15}{subsubsection.3.2.2.1}}
\citation{rgp}
\citation{css}
\citation{rg}
\@writefile{lol}{\contentsline {lstlisting}{\numberline {3.1}Regul\IeC {\'a}rn\IeC {\'\i } v\IeC {\'y}raz reprezentuj\IeC {\'\i }c\IeC {\'\i } hexadecim\IeC {\'a}ln\IeC {\'\i } \IeC {\v c}\IeC {\'\i }sla}{17}{lstlisting.3.1}}
\@writefile{lol}{\contentsline {lstlisting}{\numberline {3.2}P\IeC {\v r}\IeC {\'\i }klad \textbf  {negative lookahead}}{17}{lstlisting.3.2}}
\@writefile{toc}{\contentsline {subsubsection}{\numberline {3.2.2.2}V\IeC {\'y}znamy token\IeC {\r u} a jejich diagramy}{18}{subsubsection.3.2.2.2}}
\@writefile{lof}{\contentsline {figure}{\numberline {3.1}{\ignorespaces Diagram tokenu koment\IeC {\'a}\IeC {\v r}e}}{18}{figure.3.1}}
\newlabel{comment}{{\M@TitleReference {3.1}{Diagram tokenu koment\IeC {\'a}\IeC {\v r}e}}{18}{Diagram tokenu komentáře}{figure.3.1}{}}
\@writefile{lof}{\contentsline {figure}{\numberline {3.2}{\ignorespaces Diagram nov\IeC {\'e} \IeC {\v r}\IeC {\'a}dky}}{18}{figure.3.2}}
\newlabel{newlineT}{{\M@TitleReference {3.2}{Diagram nov\IeC {\'e} \IeC {\v r}\IeC {\'a}dky}}{18}{Diagram nové řádky}{figure.3.2}{}}
\@writefile{lof}{\contentsline {figure}{\numberline {3.3}{\ignorespaces Diagram pr\IeC {\'a}zdn\IeC {\'e}ho znaku}}{18}{figure.3.3}}
\newlabel{whitespace}{{\M@TitleReference {3.3}{Diagram pr\IeC {\'a}zdn\IeC {\'e}ho znaku}}{18}{Diagram prázdného znaku}{figure.3.3}{}}
\@writefile{lof}{\contentsline {figure}{\numberline {3.4}{\ignorespaces Diagram hexadecim\IeC {\'a}ln\IeC {\'\i } \IeC {\v c}\IeC {\'\i }slice}}{19}{figure.3.4}}
\newlabel{hexdigit}{{\M@TitleReference {3.4}{Diagram hexadecim\IeC {\'a}ln\IeC {\'\i } \IeC {\v c}\IeC {\'\i }slice}}{19}{Diagram hexadecimální číslice}{figure.3.4}{}}
\@writefile{lof}{\contentsline {figure}{\numberline {3.5}{\ignorespaces Diagram escapovan\IeC {\'e} sekvence}}{19}{figure.3.5}}
\newlabel{escape}{{\M@TitleReference {3.5}{Diagram escapovan\IeC {\'e} sekvence}}{19}{Diagram escapované sekvence}{figure.3.5}{}}
\@writefile{lof}{\contentsline {figure}{\numberline {3.6}{\ignorespaces Diagram whitespace tokenu}}{19}{figure.3.6}}
\newlabel{whitespace-token}{{\M@TitleReference {3.6}{Diagram whitespace tokenu}}{19}{Diagram whitespace tokenu}{figure.3.6}{}}
\@writefile{lof}{\contentsline {figure}{\numberline {3.7}{\ignorespaces Diagram tokenu identifik\IeC {\'a}toru}}{20}{figure.3.7}}
\newlabel{ident}{{\M@TitleReference {3.7}{Diagram tokenu identifik\IeC {\'a}toru}}{20}{Diagram tokenu identifikátoru}{figure.3.7}{}}
\@writefile{lof}{\contentsline {figure}{\numberline {3.8}{\ignorespaces Diagram tokenu funkce}}{20}{figure.3.8}}
\newlabel{functionT}{{\M@TitleReference {3.8}{Diagram tokenu funkce}}{20}{Diagram tokenu funkce}{figure.3.8}{}}
\@writefile{lof}{\contentsline {figure}{\numberline {3.9}{\ignorespaces Diagram at-keyword tokenu}}{20}{figure.3.9}}
\newlabel{atkeyword}{{\M@TitleReference {3.9}{Diagram at-keyword tokenu}}{20}{Diagram at-keyword tokenu}{figure.3.9}{}}
\@writefile{lof}{\contentsline {figure}{\numberline {3.10}{\ignorespaces Diagram hash tokenu}}{21}{figure.3.10}}
\newlabel{hash}{{\M@TitleReference {3.10}{Diagram hash tokenu}}{21}{Diagram hash tokenu}{figure.3.10}{}}
\@writefile{lof}{\contentsline {figure}{\numberline {3.11}{\ignorespaces Diagram reprezentace tokenu \IeC {\v r}et\IeC {\v e}zce}}{21}{figure.3.11}}
\newlabel{string}{{\M@TitleReference {3.11}{Diagram reprezentace tokenu \IeC {\v r}et\IeC {\v e}zce}}{21}{Diagram reprezentace tokenu řetězce}{figure.3.11}{}}
\@writefile{lof}{\contentsline {figure}{\numberline {3.12}{\ignorespaces Diagram tokenu ne\IeC {\'u}pln\IeC {\v e} zadan\IeC {\'e}ho \IeC {\v r}et\IeC {\v e}zce}}{22}{figure.3.12}}
\newlabel{badstring}{{\M@TitleReference {3.12}{Diagram tokenu ne\IeC {\'u}pln\IeC {\v e} zadan\IeC {\'e}ho \IeC {\v r}et\IeC {\v e}zce}}{22}{Diagram tokenu neúplně zadaného řetězce}{figure.3.12}{}}
\@writefile{lof}{\contentsline {figure}{\numberline {3.13}{\ignorespaces Diagram URL tokenu}}{22}{figure.3.13}}
\newlabel{url}{{\M@TitleReference {3.13}{Diagram URL tokenu}}{22}{Diagram URL tokenu}{figure.3.13}{}}
\@writefile{lof}{\contentsline {figure}{\numberline {3.14}{\ignorespaces Diagram tokenu reprezentuj\IeC {\'\i }c\IeC {\'\i } \IeC {\v c}\IeC {\'\i }slo}}{23}{figure.3.14}}
\newlabel{number}{{\M@TitleReference {3.14}{Diagram tokenu reprezentuj\IeC {\'\i }c\IeC {\'\i } \IeC {\v c}\IeC {\'\i }slo}}{23}{Diagram tokenu reprezentující číslo}{figure.3.14}{}}
\@writefile{lof}{\contentsline {figure}{\numberline {3.15}{\ignorespaces Diagram tokenu, p\IeC {\v r}edstavuj\IeC {\'\i }c\IeC {\'\i } \IeC {\v c}\IeC {\'\i }slo se svoj\IeC {\'\i } jednotkou}}{23}{figure.3.15}}
\newlabel{dimension}{{\M@TitleReference {3.15}{Diagram tokenu, p\IeC {\v r}edstavuj\IeC {\'\i }c\IeC {\'\i } \IeC {\v c}\IeC {\'\i }slo se svoj\IeC {\'\i } jednotkou}}{23}{Diagram tokenu, představující číslo se svojí jednotkou}{figure.3.15}{}}
\@writefile{lof}{\contentsline {figure}{\numberline {3.16}{\ignorespaces Diagram tokenu \IeC {\v c}\IeC {\'\i }sla v~procentech}}{23}{figure.3.16}}
\newlabel{percentage}{{\M@TitleReference {3.16}{Diagram tokenu \IeC {\v c}\IeC {\'\i }sla v~procentech}}{23}{Diagram tokenu čísla v~procentech}{figure.3.16}{}}
\@writefile{lof}{\contentsline {figure}{\numberline {3.17}{\ignorespaces Diagram tokenu u\IeC {\v z}ivatelsk\IeC {\'e} prom\IeC {\v e}nn\IeC {\'e}}}{24}{figure.3.17}}
\newlabel{variable}{{\M@TitleReference {3.17}{Diagram tokenu u\IeC {\v z}ivatelsk\IeC {\'e} prom\IeC {\v e}nn\IeC {\'e}}}{24}{Diagram tokenu uživatelské proměnné}{figure.3.17}{}}
\@writefile{lof}{\contentsline {figure}{\numberline {3.18}{\ignorespaces Diagram tokenu definuj\IeC {\'\i }c\IeC {\'\i } mixin}}{24}{figure.3.18}}
\newlabel{mixin}{{\M@TitleReference {3.18}{Diagram tokenu definuj\IeC {\'\i }c\IeC {\'\i } mixin}}{24}{Diagram tokenu definující mixin}{figure.3.18}{}}
\citation{css}
\@writefile{lof}{\contentsline {figure}{\numberline {3.19}{\ignorespaces Diagram tokenu t\IeC {\v r}\IeC {\'\i }dy}}{25}{figure.3.19}}
\newlabel{class}{{\M@TitleReference {3.19}{Diagram tokenu t\IeC {\v r}\IeC {\'\i }dy}}{25}{Diagram tokenu třídy}{figure.3.19}{}}
\@writefile{toc}{\contentsline {subsubsection}{\numberline {3.2.2.3}Algoritmus tokenizace}{25}{subsubsection.3.2.2.3}}
\newlabel{algtokenizace}{{\M@TitleReference {3.2.2.3}{N\IeC {\'a}vrh preprocesoru}}{25}{Algoritmus tokenizace}{subsubsection.3.2.2.3}{}}
\@writefile{toc}{\contentsline {subsubsection}{\numberline {3.2.2.4}Konzumace \IeC {\v c}\IeC {\'\i }sla}{28}{subsubsection.3.2.2.4}}
\citation{css}
\citation{css}
\citation{css}
\@writefile{toc}{\contentsline {subsection}{\numberline {3.2.3}Parsov\IeC {\'a}n\IeC {\'\i }}{29}{subsection.3.2.3}}
\newlabel{pars}{{\M@TitleReference {3.2.3}{N\IeC {\'a}vrh preprocesoru}}{29}{Parsování}{subsection.3.2.3}{}}
\@writefile{lol}{\contentsline {lstlisting}{\numberline {3.3}P\IeC {\v r}\IeC {\'\i }klad ``p\IeC {\v r}edehry'' (prelude) pravidla Simple Block}{29}{lstlisting.3.3}}
\citation{rg}
\@writefile{toc}{\contentsline {subsubsection}{\numberline {3.2.3.1}Definice pojm\IeC {\r u} f\IeC {\'a}ze parsov\IeC {\'a}n\IeC {\'\i }}{30}{subsubsection.3.2.3.1}}
\@writefile{toc}{\contentsline {subsubsection}{\numberline {3.2.3.2}V\IeC {\'y}znamy a diagramy gramatick\IeC {\'y}ch pravidel}{30}{subsubsection.3.2.3.2}}
\@writefile{lof}{\contentsline {figure}{\numberline {3.20}{\ignorespaces Diagram pravidla Stylesheet}}{30}{figure.3.20}}
\@writefile{lof}{\contentsline {figure}{\numberline {3.21}{\ignorespaces Diagram pravidla List of Rules}}{31}{figure.3.21}}
\@writefile{lof}{\contentsline {figure}{\numberline {3.22}{\ignorespaces Diagram pravidla At-Rule}}{31}{figure.3.22}}
\@writefile{lof}{\contentsline {figure}{\numberline {3.23}{\ignorespaces Diagram pravidla Qualified Rule}}{31}{figure.3.23}}
\@writefile{lof}{\contentsline {figure}{\numberline {3.24}{\ignorespaces Diagram pravidla Declaration List}}{32}{figure.3.24}}
\@writefile{lof}{\contentsline {figure}{\numberline {3.25}{\ignorespaces Diagram pravidla Declaration}}{32}{figure.3.25}}
\@writefile{lof}{\contentsline {figure}{\numberline {3.26}{\ignorespaces Diagram pravidla Component Value}}{32}{figure.3.26}}
\@writefile{lof}{\contentsline {figure}{\numberline {3.27}{\ignorespaces Diagram pravidla Function}}{32}{figure.3.27}}
\citation{css}
\@writefile{lof}{\contentsline {figure}{\numberline {3.28}{\ignorespaces Diagram pravidla Simple Block}}{33}{figure.3.28}}
\@writefile{lof}{\contentsline {figure}{\numberline {3.29}{\ignorespaces Diagram pravidla Variable}}{33}{figure.3.29}}
\@writefile{lof}{\contentsline {figure}{\numberline {3.30}{\ignorespaces Diagram pravidla Mixin}}{33}{figure.3.30}}
\@writefile{toc}{\contentsline {subsubsection}{\numberline {3.2.3.3}Algoritmus parsov\IeC {\'a}n\IeC {\'\i }}{33}{subsubsection.3.2.3.3}}
\citation{Style}
\citation{php}
\@writefile{toc}{\contentsline {subsection}{\numberline {3.2.4}Preprocesov\IeC {\'a}n\IeC {\'\i }}{38}{subsection.3.2.4}}
\newlabel{prepro}{{\M@TitleReference {3.2.4}{N\IeC {\'a}vrh preprocesoru}}{38}{Preprocesování}{subsection.3.2.4}{}}
\@writefile{toc}{\contentsline {subsubsection}{\numberline {3.2.4.1}Import extern\IeC {\'\i }ch soubor\IeC {\r u}}{38}{subsubsection.3.2.4.1}}
\@writefile{toc}{\contentsline {subsubsection}{\numberline {3.2.4.2}U\IeC {\v z}ivatelsk\IeC {\'e} prom\IeC {\v e}nn\IeC {\'e}}{38}{subsubsection.3.2.4.2}}
\@writefile{toc}{\contentsline {subsubsection}{\numberline {3.2.4.3}U\IeC {\v z}ivatelsk\IeC {\'e} funkce}{38}{subsubsection.3.2.4.3}}
\@writefile{toc}{\contentsline {subsubsection}{\numberline {3.2.4.4}D\IeC {\v e}di\IeC {\v c}nost}{38}{subsubsection.3.2.4.4}}
\@writefile{toc}{\contentsline {subsubsection}{\numberline {3.2.4.5}Vno\IeC {\v r}ov\IeC {\'a}n\IeC {\'\i }}{38}{subsubsection.3.2.4.5}}
\citation{colortheory}
\citation{Style}
\citation{Style}
\citation{colortheory}
\citation{wc}
\citation{wc}
\@writefile{toc}{\contentsline {subsubsection}{\numberline {3.2.4.6}Vyj\IeC {\'\i }m\IeC {\'a}n\IeC {\'\i } vlastnost\IeC {\'\i }}{39}{subsubsection.3.2.4.6}}
\@writefile{toc}{\contentsline {subsubsection}{\numberline {3.2.4.7}Funkce zji\IeC {\v s}\IeC {\v t}uj\IeC {\'\i }c\IeC {\'\i } vlastnosti obr\IeC {\'a}zku}{39}{subsubsection.3.2.4.7}}
\@writefile{toc}{\contentsline {subsubsection}{\numberline {3.2.4.8}Barevn\IeC {\'e} t\IeC {\'o}nov\IeC {\'a}n\IeC {\'\i } fotek a funkce s~obr\IeC {\'a}zky}{39}{subsubsection.3.2.4.8}}
\@writefile{toc}{\contentsline {subsubsection}{\numberline {3.2.4.9}Barevn\IeC {\'e} palety a barevn\IeC {\'e} funkce}{39}{subsubsection.3.2.4.9}}
\@writefile{lol}{\contentsline {lstlisting}{\numberline {3.4}Uk\IeC {\'a}zka pou\IeC {\v z}it\IeC {\'\i } HSL modelu v~prost\IeC {\v r}ed\IeC {\'\i } jazyka CSS}{39}{lstlisting.3.4}}
\newlabel{colorrgb}{{\M@TitleReference {3.2.4.9}{N\IeC {\'a}vrh preprocesoru}}{39}{}{lstnumber.3.4.3}{}}
\citation{colortheory}
\citation{wc}
\citation{wc}
\citation{colortheory}
\citation{wc}
\citation{wc}
\@writefile{lof}{\contentsline {figure}{\numberline {3.31}{\ignorespaces Aditvivn\IeC {\'\i } m\IeC {\'\i }ch\IeC {\'a}n\IeC {\'\i } barev z~\IeC {\v c}erven\IeC {\'e}, zelen\IeC {\'e}, modr\IeC {\'e}\cite  {wc}}}{40}{figure.3.31}}
\@writefile{lof}{\contentsline {figure}{\numberline {3.32}{\ignorespaces Krychle reprezentuj\IeC {\'\i } barevn\IeC {\'y} prostor RGB modelu\cite  {wc}}}{40}{figure.3.32}}
\@writefile{lol}{\contentsline {lstlisting}{\numberline {3.5}P\IeC {\v r}\IeC {\'\i }klad pou\IeC {\v z}it\IeC {\'\i } RGB modelu v~prost\IeC {\v r}ed\IeC {\'\i } jazyka CSS}{40}{lstlisting.3.5}}
\newlabel{colorcmyk}{{\M@TitleReference {3.2.4.9}{N\IeC {\'a}vrh preprocesoru}}{40}{}{lstnumber.3.5.3}{}}
\citation{colortheory}
\citation{wc}
\citation{wc}
\citation{colortheory}
\@writefile{lof}{\contentsline {figure}{\numberline {3.33}{\ignorespaces Subtraktivn\IeC {\'\i } m\IeC {\'\i }ch\IeC {\'a}n\IeC {\'\i } barev ze \IeC {\v z}lut\IeC {\'e}, azurov\IeC {\'e} a purpurov\IeC {\'e}\cite  {wc}}}{41}{figure.3.33}}
\@writefile{lof}{\contentsline {figure}{\numberline {3.34}{\ignorespaces Vyu\IeC {\v z}it\IeC {\'\i } CMYK modelu p\IeC {\v r}i m\IeC {\'\i }ch\IeC {\'a}n\IeC {\'\i } barev pro tisk\cite  {wc}}}{41}{figure.3.34}}
\newlabel{colorhsl}{{\M@TitleReference {3.2.4.9}{N\IeC {\'a}vrh preprocesoru}}{41}{}{figure.3.34}{}}
\citation{wc}
\citation{wc}
\citation{colortheory}
\citation{Style}
\citation{colortheory}
\citation{wc}
\citation{wc}
\@writefile{lof}{\contentsline {figure}{\numberline {3.35}{\ignorespaces V\IeC {\'a}lec reprezentuj\IeC {\'\i }c\IeC {\'\i } barevn\IeC {\'e} spektrum u~HSL modelu\cite  {wc}}}{42}{figure.3.35}}
\newlabel{hsl}{{\M@TitleReference {3.35}{V\IeC {\'a}lec reprezentuj\IeC {\'\i }c\IeC {\'\i } barevn\IeC {\'e} spektrum u~HSL modelu\cite  {wc}}}{42}{Válec reprezentující barevné spektrum u~HSL modelu\cite {wc}}{figure.3.35}{}}
\@writefile{lol}{\contentsline {lstlisting}{\numberline {3.6}P\IeC {\v r}\IeC {\'\i }klad pou\IeC {\v z}it\IeC {\'\i } HSL modelu v~prost\IeC {\v r}ed\IeC {\'\i } jazyka CSS}{42}{lstlisting.3.6}}
\newlabel{colorhsv}{{\M@TitleReference {3.2.4.9}{N\IeC {\'a}vrh preprocesoru}}{42}{}{lstnumber.3.6.3}{}}
\citation{colortheory}
\citation{wc}
\citation{wc}
\citation{colortheory}
\citation{wc}
\citation{wc}
\@writefile{lof}{\contentsline {figure}{\numberline {3.36}{\ignorespaces V\IeC {\'a}lec reprezentuj\IeC {\'\i }c\IeC {\'\i } barevn\IeC {\'e} spektrum u~HSV modelu\cite  {wc}}}{43}{figure.3.36}}
\newlabel{hsv}{{\M@TitleReference {3.36}{V\IeC {\'a}lec reprezentuj\IeC {\'\i }c\IeC {\'\i } barevn\IeC {\'e} spektrum u~HSV modelu\cite  {wc}}}{43}{Válec reprezentující barevné spektrum u~HSV modelu\cite {wc}}{figure.3.36}{}}
\@writefile{lof}{\contentsline {figure}{\numberline {3.37}{\ignorespaces Porovn\IeC {\'a}n\IeC {\'\i } vlastnost\IeC {\'\i } saturace u~HSL a HSV modelu\cite  {wc}}}{43}{figure.3.37}}
\citation{colortheory}
\citation{wc}
\citation{wc}
\citation{colortheory}
\citation{colortheory}
\@writefile{lof}{\contentsline {figure}{\numberline {3.38}{\ignorespaces Projekce RGB krychle do chromatick\IeC {\'e} roviny\cite  {wc}}}{44}{figure.3.38}}
\newlabel{plane}{{\M@TitleReference {3.38}{Projekce RGB krychle do chromatick\IeC {\'e} roviny\cite  {wc}}}{44}{Projekce RGB krychle do chromatické roviny\cite {wc}}{figure.3.38}{}}
\@writefile{lof}{\contentsline {figure}{\numberline {3.39}{\ignorespaces Chroma rozd\IeC {\v e}len\IeC {\'\i } v~modelech HSV a HSL\cite  {wc}}}{44}{figure.3.39}}
\newlabel{croma}{{\M@TitleReference {3.39}{Chroma rozd\IeC {\v e}len\IeC {\'\i } v~modelech HSV a HSL\cite  {wc}}}{44}{Chroma rozdělení v~modelech HSV a HSL\cite {wc}}{figure.3.39}{}}
\citation{colortheory}
\citation{colortheory}
\citation{colortheory}
\citation{colortheory}
\citation{formal}
\@writefile{toc}{\contentsline {subsection}{\numberline {3.2.5}V\IeC {\'y}pis v\IeC {\'y}stupu}{47}{subsection.3.2.5}}
\newlabel{vypis}{{\M@TitleReference {3.2.5}{N\IeC {\'a}vrh preprocesoru}}{47}{Výpis výstupu}{subsection.3.2.5}{}}
\@writefile{toc}{\contentsline {subsection}{\numberline {3.2.6}O\IeC {\v s}et\IeC {\v r}ov\IeC {\'a}n\IeC {\'\i } chyb}{47}{subsection.3.2.6}}
\newlabel{osch}{{\M@TitleReference {3.2.6}{N\IeC {\'a}vrh preprocesoru}}{47}{Ošetřování chyb}{subsection.3.2.6}{}}
\@writefile{toc}{\contentsline {subsection}{\numberline {3.2.7}Shrnut\IeC {\'\i } pravidel}{47}{subsection.3.2.7}}
\citation{php}
\citation{lighttpd}
\citation{git}
\citation{composer}
\citation{phpunit}
\citation{xdebug}
\citation{tracy}
\citation{apigen}
\citation{netbeans}
\citation{php}
\citation{lighttpd}
\@writefile{lof}{\addvspace {10\p@ }}
\@writefile{lot}{\addvspace {10\p@ }}
\@writefile{logr}{\addvspace {10\p@ }}
\@writefile{toc}{\contentsline {chapter}{\chapternumberline {4}Implementace}{49}{chapter.4}}
\@writefile{toc}{\contentsline {section}{\numberline {4.1}Pou\IeC {\v z}it\IeC {\'e} technologie}{49}{section.4.1}}
\@writefile{toc}{\contentsline {subsection}{\numberline {4.1.1}Skriptovac\IeC {\'\i } jazyk PHP}{49}{subsection.4.1.1}}
\@writefile{toc}{\contentsline {subsection}{\numberline {4.1.2}Serverov\IeC {\'a} \IeC {\v c}\IeC {\'a}st s~vyu\IeC {\v z}it\IeC {\'\i }m Lighttpd}{49}{subsection.4.1.2}}
\citation{git}
\citation{composer}
\citation{packagist}
\citation{phpunit}
\citation{xdebug}
\@writefile{toc}{\contentsline {subsection}{\numberline {4.1.3}Verzovac\IeC {\'\i } syst\IeC {\'e}my a vyu\IeC {\v z}it\IeC {\'\i } GITu}{50}{subsection.4.1.3}}
\@writefile{toc}{\contentsline {subsection}{\numberline {4.1.4}Spr\IeC {\'a}va z\IeC {\'a}vislost\IeC {\'\i } a utilita Composer}{50}{subsection.4.1.4}}
\newlabel{composersection}{{\M@TitleReference {4.1.4}{Implementace}}{50}{Správa závislostí a utilita Composer}{subsection.4.1.4}{}}
\@writefile{toc}{\contentsline {subsection}{\numberline {4.1.5}Unit testov\IeC {\'a}n\IeC {\'\i } a framework PHPUnit}{50}{subsection.4.1.5}}
\@writefile{toc}{\contentsline {subsection}{\numberline {4.1.6}Debugger a roz\IeC {\v s}\IeC {\'\i }\IeC {\v r}en\IeC {\'\i } Xdebug}{50}{subsection.4.1.6}}
\citation{tracy}
\citation{apigen}
\citation{netbeans}
\@writefile{toc}{\contentsline {subsection}{\numberline {4.1.7}Lad\IeC {\v e}n\IeC {\'\i } a knihovna Tracy}{51}{subsection.4.1.7}}
\@writefile{toc}{\contentsline {subsection}{\numberline {4.1.8}Dokumentace a n\IeC {\'a}stroj ApiGen}{51}{subsection.4.1.8}}
\@writefile{toc}{\contentsline {subsection}{\numberline {4.1.9}V\IeC {\'y}vojov\IeC {\'a} prost\IeC {\v r}ed\IeC {\'\i } a vyu\IeC {\v z}it\IeC {\'\i } NetBeans}{51}{subsection.4.1.9}}
\@writefile{toc}{\contentsline {section}{\numberline {4.2}V\IeC {\'y}choz\IeC {\'\i } principy}{51}{section.4.2}}
\citation{oop}
\citation{oop}
\citation{oop}
\citation{oop}
\citation{reddwarf}
\@writefile{toc}{\contentsline {subsection}{\numberline {4.2.1}OOP - Object-Oriented Programming}{52}{subsection.4.2.1}}
\@writefile{toc}{\contentsline {subsubsection}{\numberline {4.2.1.1}Object}{52}{subsubsection.4.2.1.1}}
\@writefile{toc}{\contentsline {subsubsection}{\numberline {4.2.1.2}Abstrakce}{52}{subsubsection.4.2.1.2}}
\citation{oop}
\citation{oop}
\citation{oop}
\citation{oop}
\citation{oop}
\citation{agile}
\@writefile{toc}{\contentsline {subsubsection}{\numberline {4.2.1.3}Encapsulation}{53}{subsubsection.4.2.1.3}}
\@writefile{toc}{\contentsline {subsubsection}{\numberline {4.2.1.4}Composition}{53}{subsubsection.4.2.1.4}}
\@writefile{toc}{\contentsline {subsubsection}{\numberline {4.2.1.5}Delegation}{53}{subsubsection.4.2.1.5}}
\@writefile{toc}{\contentsline {subsubsection}{\numberline {4.2.1.6}Inheritance}{53}{subsubsection.4.2.1.6}}
\@writefile{toc}{\contentsline {subsubsection}{\numberline {4.2.1.7}Polymorphism}{53}{subsubsection.4.2.1.7}}
\@writefile{toc}{\contentsline {subsection}{\numberline {4.2.2}SoC - Separation of Concerns}{53}{subsection.4.2.2}}
\citation{pragp}
\citation{agile}
\citation{agile}
\citation{agile}
\citation{agile}
\citation{agile}
\@writefile{toc}{\contentsline {subsection}{\numberline {4.2.3}KISS - Keep It Simple Stupid}{54}{subsection.4.2.3}}
\@writefile{toc}{\contentsline {subsection}{\numberline {4.2.4}DRY - Don't Repeat Yourself}{54}{subsection.4.2.4}}
\@writefile{toc}{\contentsline {subsection}{\numberline {4.2.5}S.O.L.I.D}{54}{subsection.4.2.5}}
\@writefile{toc}{\contentsline {subsubsection}{\numberline {4.2.5.1}SRP - Single Responsibility Principle}{54}{subsubsection.4.2.5.1}}
\@writefile{toc}{\contentsline {subsubsection}{\numberline {4.2.5.2}OCP - Open/Closed Principle}{54}{subsubsection.4.2.5.2}}
\@writefile{toc}{\contentsline {subsubsection}{\numberline {4.2.5.3}LSP - Liskov Substitution Principle}{54}{subsubsection.4.2.5.3}}
\@writefile{toc}{\contentsline {subsubsection}{\numberline {4.2.5.4}ISP - Interface Segregation Principle}{54}{subsubsection.4.2.5.4}}
\citation{epsk}
\citation{epsk}
\citation{epsk}
\@writefile{toc}{\contentsline {subsubsection}{\numberline {4.2.5.5}DIP - Dependency Inversion Principle}{55}{subsubsection.4.2.5.5}}
\@writefile{toc}{\contentsline {subsection}{\numberline {4.2.6}DI - Dependency Injection}{55}{subsection.4.2.6}}
\@writefile{toc}{\contentsline {subsection}{\numberline {4.2.7}TDD - Test-Driven Development}{55}{subsection.4.2.7}}
\newlabel{tdd}{{\M@TitleReference {4.2.7}{Implementace}}{55}{TDD - Test-Driven Development}{subsection.4.2.7}{}}
\@writefile{toc}{\contentsline {subsubsection}{\numberline {4.2.7.1}Cyklus v\IeC {\'y}voje}{55}{subsubsection.4.2.7.1}}
\citation{epsk}
\citation{dp}
\@writefile{toc}{\contentsline {subsubsection}{\numberline {4.2.7.2}Metrika Code Coverage}{56}{subsubsection.4.2.7.2}}
\@writefile{toc}{\contentsline {subsubsection}{\numberline {4.2.7.3}Kritika a omezen\IeC {\'\i } TDD}{56}{subsubsection.4.2.7.3}}
\@writefile{toc}{\contentsline {subsection}{\numberline {4.2.8}Design Patterns - n\IeC {\'a}vrhov\IeC {\'e} vzory}{56}{subsection.4.2.8}}
\@writefile{toc}{\contentsline {subsubsection}{\numberline {4.2.8.1}Vyu\IeC {\v z}it\IeC {\'\i } n\IeC {\'a}vrhov\IeC {\'y}ch vzor\IeC {\r u}}{56}{subsubsection.4.2.8.1}}
\citation{psr}
\@writefile{toc}{\contentsline {subsubsection}{\numberline {4.2.8.2}Kritika}{57}{subsubsection.4.2.8.2}}
\@writefile{toc}{\contentsline {subsection}{\numberline {4.2.9}PSR - PHP Standard Recommendation}{57}{subsection.4.2.9}}
\newlabel{psrsection}{{\M@TitleReference {4.2.9}{Implementace}}{57}{PSR - PHP Standard Recommendation}{subsection.4.2.9}{}}
\@writefile{toc}{\contentsline {subsubsection}{\numberline {4.2.9.1}PSR 1}{57}{subsubsection.4.2.9.1}}
\@writefile{toc}{\contentsline {subsubsection}{\numberline {4.2.9.2}PSR 2}{57}{subsubsection.4.2.9.2}}
\@writefile{toc}{\contentsline {subsubsection}{\numberline {4.2.9.3}PSR 4}{57}{subsubsection.4.2.9.3}}
\newlabel{psr4}{{\M@TitleReference {4.2.9.3}{Implementace}}{57}{PSR 4}{subsubsection.4.2.9.3}{}}
\@writefile{toc}{\contentsline {subsubsection}{\numberline {4.2.9.4}PSR 5}{57}{subsubsection.4.2.9.4}}
\newlabel{psr5}{{\M@TitleReference {4.2.9.4}{Implementace}}{57}{PSR 5}{subsubsection.4.2.9.4}{}}
\@writefile{lol}{\contentsline {lstlisting}{\numberline {4.1}P\IeC {\v r}\IeC {\'\i }klad tvorby dokumentace v~jazyku PHP}{58}{lstlisting.4.1}}
\@writefile{toc}{\contentsline {section}{\numberline {4.3}Implementace f\IeC {\'a}ze nastaven\IeC {\'\i }}{59}{section.4.3}}
\@writefile{lol}{\contentsline {lstlisting}{\numberline {4.2}P\IeC {\v r}\IeC {\'\i }klad jedin\IeC {\'e}ho mo\IeC {\v z}n\IeC {\'e}ho z\IeC {\'a}pisu barvy podporov\IeC {\'a}n\IeC {\'e}ho ve star\IeC {\v s}\IeC {\'\i }ch prohl\IeC {\'\i }\IeC {\v z}e\IeC {\v c}\IeC {\'\i }ch}{59}{lstlisting.4.2}}
\@writefile{lol}{\contentsline {lstlisting}{\numberline {4.3}P\IeC {\v r}\IeC {\'\i }klad mo\IeC {\v z}n\IeC {\'y}ch z\IeC {\'a}pis\IeC {\r u} barev od verze CSS 3}{59}{lstlisting.4.3}}
\@writefile{lof}{\contentsline {figure}{\numberline {4.1}{\ignorespaces UML diagram realizace nastaven\IeC {\'\i }}}{59}{figure.4.1}}
\@writefile{toc}{\contentsline {section}{\numberline {4.4}Implementace tokenizace}{60}{section.4.4}}
\newlabel{impltok}{{\M@TitleReference {4.4}{Implementace}}{60}{Implementace tokenizace}{section.4.4}{}}
\@writefile{toc}{\contentsline {subsection}{\numberline {4.4.1}Cyklus z\IeC {\'\i }sk\IeC {\'a}n\IeC {\'\i } tokenu}{60}{subsection.4.4.1}}
\@writefile{lof}{\contentsline {figure}{\numberline {4.2}{\ignorespaces UML diagram um\IeC {\'\i }st\IeC {\v e}n\IeC {\'\i } regul\IeC {\'a}rn\IeC {\'\i }ch v\IeC {\'y}raz\IeC {\r u} v~tokeniz\IeC {\'e}ru}}{60}{figure.4.2}}
\newlabel{umlregexp}{{\M@TitleReference {4.2}{UML diagram um\IeC {\'\i }st\IeC {\v e}n\IeC {\'\i } regul\IeC {\'a}rn\IeC {\'\i }ch v\IeC {\'y}raz\IeC {\r u} v~tokeniz\IeC {\'e}ru}}{60}{UML diagram umístění regulárních výrazů v~tokenizéru}{figure.4.2}{}}
\@writefile{lof}{\contentsline {figure}{\numberline {4.3}{\ignorespaces UML diagram n\IeC {\v e}kolika t\IeC {\v r}\IeC {\'\i }d odvozen\IeC {\'y}ch od z\IeC {\'a}kladn\IeC {\'\i }ch t\IeC {\v r}\IeC {\'\i }d token\IeC {\r u}}}{61}{figure.4.3}}
\newlabel{umltokeny}{{\M@TitleReference {4.3}{UML diagram n\IeC {\v e}kolika t\IeC {\v r}\IeC {\'\i }d odvozen\IeC {\'y}ch od z\IeC {\'a}kladn\IeC {\'\i }ch t\IeC {\v r}\IeC {\'\i }d token\IeC {\r u}}}{61}{UML diagram několika tříd odvozených od základních tříd tokenů}{figure.4.3}{}}
\@writefile{lof}{\contentsline {figure}{\numberline {4.4}{\ignorespaces UML diagram sch\IeC {\'e}ma tokeniz\IeC {\'e}ru}}{62}{figure.4.4}}
\newlabel{umltokenizer}{{\M@TitleReference {4.4}{UML diagram sch\IeC {\'e}ma tokeniz\IeC {\'e}ru}}{62}{UML diagram schéma tokenizéru}{figure.4.4}{}}
\@writefile{toc}{\contentsline {section}{\numberline {4.5}Implementace parsov\IeC {\'a}n\IeC {\'\i }}{62}{section.4.5}}
\@writefile{lof}{\contentsline {figure}{\numberline {4.5}{\ignorespaces UML diagram n\IeC {\v e}kolika t\IeC {\v r}\IeC {\'\i }d odvozen\IeC {\'y}ch od z\IeC {\'a}kladn\IeC {\'\i } t\IeC {\v r}\IeC {\'\i }dy pravidel}}{63}{figure.4.5}}
\newlabel{umlpravidla}{{\M@TitleReference {4.5}{UML diagram n\IeC {\v e}kolika t\IeC {\v r}\IeC {\'\i }d odvozen\IeC {\'y}ch od z\IeC {\'a}kladn\IeC {\'\i } t\IeC {\v r}\IeC {\'\i }dy pravidel}}{63}{UML diagram několika tříd odvozených od základní třídy pravidel}{figure.4.5}{}}
\citation{dp}
\citation{dp}
\citation{dp}
\@writefile{lof}{\contentsline {figure}{\numberline {4.6}{\ignorespaces UML diagram sch\IeC {\'e}ma parseru}}{64}{figure.4.6}}
\newlabel{umlparser}{{\M@TitleReference {4.6}{UML diagram sch\IeC {\'e}ma parseru}}{64}{UML diagram schéma parseru}{figure.4.6}{}}
\@writefile{lof}{\contentsline {figure}{\numberline {4.7}{\ignorespaces UML diagram n\IeC {\'a}vrhov\IeC {\'e}ho vzoru Composite\cite  {dp} v~prost\IeC {\v r}ed\IeC {\'\i } proprocesoru}}{65}{figure.4.7}}
\newlabel{composite}{{\M@TitleReference {4.7}{UML diagram n\IeC {\'a}vrhov\IeC {\'e}ho vzoru Composite\cite  {dp} v~prost\IeC {\v r}ed\IeC {\'\i } proprocesoru}}{65}{UML diagram návrhového vzoru Composite\cite {dp} v~prostředí proprocesoru}{figure.4.7}{}}
\@writefile{toc}{\contentsline {section}{\numberline {4.6}Implementace preprocesov\IeC {\'a}n\IeC {\'\i }}{66}{section.4.6}}
\@writefile{toc}{\contentsline {subsection}{\numberline {4.6.1}Import extern\IeC {\'\i }ch soubor\IeC {\r u}}{66}{subsection.4.6.1}}
\@writefile{toc}{\contentsline {subsubsection}{\numberline {4.6.1.1}P\IeC {\v r}\IeC {\'\i }klad pou\IeC {\v z}it\IeC {\'\i }}{66}{subsubsection.4.6.1.1}}
\@writefile{lol}{\contentsline {lstlisting}{\numberline {4.4}Vy\IeC {\v z}\IeC {\'a}d\IeC {\'a}n\IeC {\'\i } extern\IeC {\'\i }ho souboru v~syntaxi jazyka preprocesoru}{66}{lstlisting.4.4}}
\@writefile{lol}{\contentsline {lstlisting}{\numberline {4.5}V\IeC {\'y}stup v~synaxi jazyka CSS}{66}{lstlisting.4.5}}
\@writefile{toc}{\contentsline {subsection}{\numberline {4.6.2}U\IeC {\v z}ivatelsk\IeC {\'e} prom\IeC {\v e}nn\IeC {\'e}}{66}{subsection.4.6.2}}
\@writefile{toc}{\contentsline {subsubsection}{\numberline {4.6.2.1}P\IeC {\v r}\IeC {\'\i }klad pou\IeC {\v z}it\IeC {\'\i }}{66}{subsubsection.4.6.2.1}}
\@writefile{lol}{\contentsline {lstlisting}{\numberline {4.6}Vstup v~syntaxi jazyka preprocesoru}{66}{lstlisting.4.6}}
\@writefile{lol}{\contentsline {lstlisting}{\numberline {4.7}V\IeC {\'y}stup v~synaxi jazyka CSS}{67}{lstlisting.4.7}}
\@writefile{toc}{\contentsline {subsection}{\numberline {4.6.3}U\IeC {\v z}ivatelsk\IeC {\'e} funkce}{67}{subsection.4.6.3}}
\@writefile{toc}{\contentsline {subsubsection}{\numberline {4.6.3.1}P\IeC {\v r}\IeC {\'\i }klad pou\IeC {\v z}it\IeC {\'\i }}{67}{subsubsection.4.6.3.1}}
\@writefile{lol}{\contentsline {lstlisting}{\numberline {4.8}Vstup v~syntaxi jazyka preprocesoru}{67}{lstlisting.4.8}}
\@writefile{lol}{\contentsline {lstlisting}{\numberline {4.9}V\IeC {\'y}stup v~syntaxi jazyka CSS}{67}{lstlisting.4.9}}
\@writefile{toc}{\contentsline {subsection}{\numberline {4.6.4}D\IeC {\v e}di\IeC {\v c}nost}{68}{subsection.4.6.4}}
\@writefile{toc}{\contentsline {subsubsection}{\numberline {4.6.4.1}P\IeC {\v r}\IeC {\'\i }klad pou\IeC {\v z}it\IeC {\'\i }}{68}{subsubsection.4.6.4.1}}
\@writefile{lol}{\contentsline {lstlisting}{\numberline {4.10}Vstup v~syntaxi jazyka preprocesoru}{68}{lstlisting.4.10}}
\@writefile{lol}{\contentsline {lstlisting}{\numberline {4.11}V\IeC {\'y}stup v~syntaxi jazyka CSS}{68}{lstlisting.4.11}}
\@writefile{toc}{\contentsline {subsection}{\numberline {4.6.5}Vno\IeC {\v r}ov\IeC {\'a}n\IeC {\'\i }}{68}{subsection.4.6.5}}
\@writefile{toc}{\contentsline {subsubsection}{\numberline {4.6.5.1}P\IeC {\v r}\IeC {\'\i }klad pou\IeC {\v z}it\IeC {\'\i }}{68}{subsubsection.4.6.5.1}}
\@writefile{lol}{\contentsline {lstlisting}{\numberline {4.12}Vstup v~syntaxi jazyka preprocesoru}{68}{lstlisting.4.12}}
\@writefile{lol}{\contentsline {lstlisting}{\numberline {4.13}V\IeC {\'y}stup v~syntaxi jazyka CSS}{69}{lstlisting.4.13}}
\@writefile{toc}{\contentsline {subsection}{\numberline {4.6.6}Vyj\IeC {\'\i }m\IeC {\'a}n\IeC {\'\i } vlastnost\IeC {\'\i }}{69}{subsection.4.6.6}}
\@writefile{toc}{\contentsline {subsubsection}{\numberline {4.6.6.1}P\IeC {\v r}\IeC {\'\i }klad pou\IeC {\v z}it\IeC {\'\i }}{69}{subsubsection.4.6.6.1}}
\@writefile{lol}{\contentsline {lstlisting}{\numberline {4.14}Vstup v~syntaxi jazyka preprocesoru}{69}{lstlisting.4.14}}
\@writefile{lol}{\contentsline {lstlisting}{\numberline {4.15}V\IeC {\'y}stup v~syntaxi jazyka CSS}{69}{lstlisting.4.15}}
\@writefile{toc}{\contentsline {subsection}{\numberline {4.6.7}Funkce zji\IeC {\v s}\IeC {\v t}uj\IeC {\'\i }c\IeC {\'\i } vlastnosti obr\IeC {\'a}zku}{69}{subsection.4.6.7}}
\@writefile{toc}{\contentsline {subsubsection}{\numberline {4.6.7.1}P\IeC {\v r}\IeC {\'\i }klad pou\IeC {\v z}it\IeC {\'\i }}{70}{subsubsection.4.6.7.1}}
\@writefile{lol}{\contentsline {lstlisting}{\numberline {4.16}Vstup v~syntaxi jazyka preprocesoru}{70}{lstlisting.4.16}}
\@writefile{lol}{\contentsline {lstlisting}{\numberline {4.17}V\IeC {\'y}stup v~syntaxi jazyka CSS}{70}{lstlisting.4.17}}
\@writefile{toc}{\contentsline {subsection}{\numberline {4.6.8}Barevn\IeC {\'e} t\IeC {\'o}nov\IeC {\'a}n\IeC {\'\i } fotek a funkce s~obr\IeC {\'a}zky}{70}{subsection.4.6.8}}
\@writefile{toc}{\contentsline {subsubsection}{\numberline {4.6.8.1}P\IeC {\v r}\IeC {\'\i }klad pou\IeC {\v z}it\IeC {\'\i }}{70}{subsubsection.4.6.8.1}}
\@writefile{lol}{\contentsline {lstlisting}{\numberline {4.18}Vstup v~syntaxi jazyka preprocesoru}{70}{lstlisting.4.18}}
\@writefile{lol}{\contentsline {lstlisting}{\numberline {4.19}V\IeC {\'y}stup v~syntaxi jazyka CSS}{70}{lstlisting.4.19}}
\citation{pixabay}
\citation{pixabay}
\citation{dp}
\citation{dp}
\citation{dp}
\@writefile{lof}{\contentsline {figure}{\numberline {4.8}{\ignorespaces Origin\IeC {\'a}ln\IeC {\'\i } obr\IeC {\'a}zek\cite  {pixabay}}}{71}{figure.4.8}}
\@writefile{lof}{\contentsline {figure}{\numberline {4.9}{\ignorespaces Obr\IeC {\'a}zek po aplikaci barevn\IeC {\'e}ho t\IeC {\'o}nov\IeC {\'a}n\IeC {\'\i }}}{71}{figure.4.9}}
\newlabel{newimage}{{\M@TitleReference {4.9}{Obr\IeC {\'a}zek po aplikaci barevn\IeC {\'e}ho t\IeC {\'o}nov\IeC {\'a}n\IeC {\'\i }}}{71}{Obrázek po aplikaci barevného tónování}{figure.4.9}{}}
\@writefile{toc}{\contentsline {subsection}{\numberline {4.6.9}Barevn\IeC {\'e} palety a barevn\IeC {\'e} funkce}{71}{subsection.4.6.9}}
\@writefile{lof}{\contentsline {figure}{\numberline {4.10}{\ignorespaces UML diagram n\IeC {\'a}vrhov\IeC {\'e}ho vzoru Strategy\cite  {dp} v~prost\IeC {\v r}ed\IeC {\'\i } preprocesoru}}{72}{figure.4.10}}
\newlabel{umlstrategy}{{\M@TitleReference {4.10}{UML diagram n\IeC {\'a}vrhov\IeC {\'e}ho vzoru Strategy\cite  {dp} v~prost\IeC {\v r}ed\IeC {\'\i } preprocesoru}}{72}{UML diagram návrhového vzoru Strategy\cite {dp} v~prostředí preprocesoru}{figure.4.10}{}}
\@writefile{toc}{\contentsline {subsubsection}{\numberline {4.6.9.1}P\IeC {\v r}\IeC {\'\i }klad pou\IeC {\v z}it\IeC {\'\i } 1}{72}{subsubsection.4.6.9.1}}
\@writefile{lol}{\contentsline {lstlisting}{\numberline {4.20}Vstup v~syntaxi jazyka preprocesoru}{72}{lstlisting.4.20}}
\citation{dp}
\@writefile{lof}{\contentsline {figure}{\numberline {4.11}{\ignorespaces Zesv\IeC {\v e}tlen\IeC {\'\i } barvy}}{73}{figure.4.11}}
\newlabel{lighten}{{\M@TitleReference {4.11}{Zesv\IeC {\v e}tlen\IeC {\'\i } barvy}}{73}{Zesvětlení barvy}{figure.4.11}{}}
\@writefile{lol}{\contentsline {lstlisting}{\numberline {4.21}V\IeC {\'y}stup v~syntaxi jazyka CSS}{73}{lstlisting.4.21}}
\@writefile{toc}{\contentsline {subsubsection}{\numberline {4.6.9.2}P\IeC {\v r}\IeC {\'\i }klad pou\IeC {\v z}it\IeC {\'\i } 2}{73}{subsubsection.4.6.9.2}}
\@writefile{lol}{\contentsline {lstlisting}{\numberline {4.22}Vstup v~syntaxi jazyka preprocesoru}{73}{lstlisting.4.22}}
\@writefile{lof}{\contentsline {figure}{\numberline {4.12}{\ignorespaces Jemn\IeC {\'e} saturov\IeC {\'a}n\IeC {\'\i } barvy}}{73}{figure.4.12}}
\newlabel{saturate}{{\M@TitleReference {4.12}{Jemn\IeC {\'e} saturov\IeC {\'a}n\IeC {\'\i } barvy}}{73}{Jemné saturování barvy}{figure.4.12}{}}
\@writefile{lol}{\contentsline {lstlisting}{\numberline {4.23}V\IeC {\'y}stup v~syntaxi jazyka CSS}{73}{lstlisting.4.23}}
\@writefile{toc}{\contentsline {section}{\numberline {4.7}Implementace v\IeC {\'y}pisu v\IeC {\'y}stupu}{74}{section.4.7}}
\@writefile{toc}{\contentsline {subsection}{\numberline {4.7.1}Anal\IeC {\'y}za}{74}{subsection.4.7.1}}
\@writefile{toc}{\contentsline {section}{\numberline {4.8}Implementace o\IeC {\v s}et\IeC {\v r}ov\IeC {\'a}n\IeC {\'\i } chyb}{74}{section.4.8}}
\@writefile{lol}{\contentsline {lstlisting}{\numberline {4.24}P\IeC {\v r}\IeC {\'\i }klad odchyt\IeC {\'a}v\IeC {\'a}n\IeC {\'\i } v\IeC {\'y}jimek}{74}{lstlisting.4.24}}
\@writefile{toc}{\contentsline {section}{\numberline {4.9}Celkov\IeC {\'y} p\IeC {\v r}ehled implementace}{74}{section.4.9}}
\@writefile{lof}{\contentsline {figure}{\numberline {4.13}{\ignorespaces UML diagram struktury preprocesoru}}{75}{figure.4.13}}
\@writefile{lof}{\addvspace {10\p@ }}
\@writefile{lot}{\addvspace {10\p@ }}
\@writefile{logr}{\addvspace {10\p@ }}
\@writefile{toc}{\contentsline {chapter}{\chapternumberline {5}V\IeC {\'y}hody pou\IeC {\v z}it\IeC {\'\i } preprocesoru oproti jazyku CSS}{77}{chapter.5}}
\@writefile{toc}{\contentsline {section}{\numberline {5.1}Znovupou\IeC {\v z}itelnost k\IeC {\'o}du}{77}{section.5.1}}
\@writefile{toc}{\contentsline {subsection}{\numberline {5.1.1}P\IeC {\v r}\IeC {\'\i }klad pou\IeC {\v z}it\IeC {\'\i }}{77}{subsection.5.1.1}}
\@writefile{lol}{\contentsline {lstlisting}{\numberline {5.1}Vstup v~syntaxi jazyka preprocesoru}{77}{lstlisting.5.1}}
\@writefile{lol}{\contentsline {lstlisting}{\numberline {5.2}V\IeC {\'y}stup v~syntaxi jazyka CSS}{78}{lstlisting.5.2}}
\@writefile{toc}{\contentsline {section}{\numberline {5.2}Udr\IeC {\v z}itelnost}{78}{section.5.2}}
\@writefile{toc}{\contentsline {subsection}{\numberline {5.2.1}P\IeC {\v r}\IeC {\'\i }klad pou\IeC {\v z}it\IeC {\'\i }}{78}{subsection.5.2.1}}
\@writefile{lol}{\contentsline {lstlisting}{\numberline {5.3}Vstup v~syntaxi jazyka preprocesoru}{78}{lstlisting.5.3}}
\@writefile{lol}{\contentsline {lstlisting}{\numberline {5.4}V\IeC {\'y}stup v~syntaxi jazyka CSS}{79}{lstlisting.5.4}}
\@writefile{toc}{\contentsline {section}{\numberline {5.3}Zkr\IeC {\'a}cen\IeC {\'\i } d\IeC {\'e}lky k\IeC {\'o}du}{79}{section.5.3}}
\@writefile{toc}{\contentsline {subsection}{\numberline {5.3.1}P\IeC {\v r}\IeC {\'\i }klad pou\IeC {\v z}it\IeC {\'\i }}{79}{subsection.5.3.1}}
\@writefile{lol}{\contentsline {lstlisting}{\numberline {5.5}Vstup v~syntaxi jazyka preprocesoru}{79}{lstlisting.5.5}}
\@writefile{lol}{\contentsline {lstlisting}{\numberline {5.6}V\IeC {\'y}stup v~syntaxi jazyka CSS}{80}{lstlisting.5.6}}
\@writefile{toc}{\contentsline {section}{\numberline {5.4}Odstran\IeC {\v e}n\IeC {\'\i } duplicit}{81}{section.5.4}}
\@writefile{toc}{\contentsline {subsection}{\numberline {5.4.1}P\IeC {\v r}\IeC {\'\i }klad pou\IeC {\v z}it\IeC {\'\i }}{81}{subsection.5.4.1}}
\@writefile{lol}{\contentsline {lstlisting}{\numberline {5.7}Vstup v~syntaxi jazyka preprocesoru}{81}{lstlisting.5.7}}
\@writefile{lol}{\contentsline {lstlisting}{\numberline {5.8}V\IeC {\'y}stup v~syntaxi jazyka CSS}{81}{lstlisting.5.8}}
\@writefile{toc}{\contentsline {section}{\numberline {5.5}Snadn\IeC {\'a} editovatelnost k\IeC {\'o}du}{82}{section.5.5}}
\@writefile{toc}{\contentsline {subsection}{\numberline {5.5.1}P\IeC {\v r}\IeC {\'\i }klad pou\IeC {\v z}it\IeC {\'\i }}{82}{subsection.5.5.1}}
\@writefile{lol}{\contentsline {lstlisting}{\numberline {5.9}Vstup v~syntaxi jazyka preprocesoru}{82}{lstlisting.5.9}}
\@writefile{lol}{\contentsline {lstlisting}{\numberline {5.10}V\IeC {\'y}stup v~syntaxi jazyka CSS}{82}{lstlisting.5.10}}
\citation{webgarden}
\citation{webgarden}
\citation{mvc}
\@writefile{lof}{\addvspace {10\p@ }}
\@writefile{lot}{\addvspace {10\p@ }}
\@writefile{logr}{\addvspace {10\p@ }}
\@writefile{toc}{\contentsline {chapter}{\chapternumberline {6}Integrace do publika\IeC {\v c}n\IeC {\'\i }ho syst\IeC {\'e}mu Webgarden}{85}{chapter.6}}
\@writefile{toc}{\contentsline {section}{\numberline {6.1}Architektura MVC}{85}{section.6.1}}
\@writefile{toc}{\contentsline {subsection}{\numberline {6.1.1}\IeC {\v C}\IeC {\'a}st Model (\IeC {\v c}es. model)}{85}{subsection.6.1.1}}
\@writefile{toc}{\contentsline {subsection}{\numberline {6.1.2}\IeC {\v C}\IeC {\'a}st View (\IeC {\v c}es. pohled)}{85}{subsection.6.1.2}}
\@writefile{toc}{\contentsline {subsection}{\numberline {6.1.3}\IeC {\v C}\IeC {\'a}st Controller (\IeC {\v c}es. \IeC {\v r}adi\IeC {\v c})}{85}{subsection.6.1.3}}
\@writefile{toc}{\contentsline {subsection}{\numberline {6.1.4}Mechanismus MVC}{86}{subsection.6.1.4}}
\@writefile{toc}{\contentsline {section}{\numberline {6.2}Pou\IeC {\v z}it\IeC {\'\i } preprocesoru s~p\IeC {\v r}ihl\IeC {\'e}dnut\IeC {\'\i }m ke komer\IeC {\v c}n\IeC {\'\i }mu p\IeC {\v r}\IeC {\'\i }stupu}{86}{section.6.2}}
\@writefile{toc}{\contentsline {section}{\numberline {6.3}Propojen\IeC {\'\i } publika\IeC {\v c}n\IeC {\'\i }ho syst\IeC {\'e}mu a preprocesoru}{86}{section.6.3}}
\@writefile{lol}{\contentsline {lstlisting}{\numberline {6.1}Na\IeC {\v c}ten\IeC {\'\i } preprocesoru}{86}{lstlisting.6.1}}
\citation{highlighter}
\@writefile{lof}{\contentsline {figure}{\numberline {6.1}{\ignorespaces Integrace preprocesoru do prost\IeC {\v r}en\IeC {\'\i } Webgarden}}{87}{figure.6.1}}
\@writefile{lol}{\contentsline {lstlisting}{\numberline {6.2}Spu\IeC {\v s}t\IeC {\v e}n\IeC {\'\i } preprocesoru}{87}{lstlisting.6.2}}
\@writefile{lof}{\contentsline {figure}{\numberline {6.2}{\ignorespaces V\IeC {\'y}stup preprocesoru v~prost\IeC {\v r}ed\IeC {\'\i } Webgarden}}{87}{figure.6.2}}
\@writefile{toc}{\contentsline {section}{\numberline {6.4}O\IeC {\v s}et\IeC {\v r}ov\IeC {\'a}n\IeC {\'\i } chyb}{88}{section.6.4}}
\@writefile{lof}{\contentsline {figure}{\numberline {6.3}{\ignorespaces Zobrazen\IeC {\'\i } u\IeC {\v z}ivatelsk\IeC {\'e} chyby s~jej\IeC {\'\i }m v\IeC {\'y}skytem}}{88}{figure.6.3}}
\@writefile{lof}{\addvspace {10\p@ }}
\@writefile{lot}{\addvspace {10\p@ }}
\@writefile{logr}{\addvspace {10\p@ }}
\@writefile{toc}{\contentsline {chapter}{Z{\' a}v{\v e}r}{89}{chapter*.3}}
\bibcite{css}{1}
\bibcite{sassless}{2}
\bibcite{sass}{3}
\bibcite{less}{4}
\bibcite{formal}{5}
\bibcite{php}{6}
\bibcite{lighttpd}{7}
\bibcite{git}{8}
\bibcite{composer}{9}
\bibcite{packagist}{10}
\bibcite{phpunit}{11}
\bibcite{xdebug}{12}
\@writefile{toc}{\contentsline {chapter}{Literatura}{91}{section*.5}}
\bibcite{tracy}{13}
\bibcite{barvy}{14}
\bibcite{pixabay}{15}
\bibcite{webgarden}{16}
\bibcite{Style}{17}
\bibcite{rg}{18}
\bibcite{cc}{19}
\bibcite{rf}{20}
\bibcite{hp}{21}
\bibcite{dp}{22}
\bibcite{php101}{23}
\bibcite{nvp}{24}
\bibcite{rgp}{25}
\bibcite{pragp}{26}
\bibcite{wc}{27}
\bibcite{oop}{28}
\bibcite{epsk}{29}
\bibcite{agile}{30}
\bibcite{psr}{31}
\bibcite{apigen}{32}
\bibcite{highlighter}{33}
\bibcite{netbeans}{34}
\bibcite{hstyle}{35}
\bibcite{colortheory}{36}
\bibcite{reddwarf}{37}
\bibcite{ast}{38}
\bibcite{mvc}{39}
\@writefile{lof}{\addvspace {10\p@ }}
\@writefile{lot}{\addvspace {10\p@ }}
\@writefile{logr}{\addvspace {10\p@ }}
\@writefile{toc}{\contentsline {appendix}{\chapternumberline {A}Seznam pou\IeC {\v z}it\IeC {\'y}ch zkratek}{95}{appendix.A}}
\@writefile{lof}{\addvspace {10\p@ }}
\@writefile{lot}{\addvspace {10\p@ }}
\@writefile{logr}{\addvspace {10\p@ }}
\@writefile{toc}{\contentsline {appendix}{\chapternumberline {B}Obsah p\IeC {\v r}ilo\IeC {\v z}en\IeC {\'e}ho CD}{97}{appendix.B}}
\@writefile{toc}{\contentsline {paragraph}{Charakteristika nejpodstatn\IeC {\v e}j\IeC {\v s}\IeC {\'\i }ch soubor\IeC {\r u} na p\IeC {\v r}ilo\IeC {\v z}en\IeC {\'e}m CD}{97}{appendix.B}}
\memsetcounter{lastsheet}{113}
\memsetcounter{lastpage}{97}
