\select@language {czech}
\select@language {czech}
\addvspace {10\p@ }
\addvspace {10\p@ }
\addvspace {10\p@ }
\addvspace {10\p@ }
\contentsline {figure}{\numberline {3.1}{\ignorespaces Diagram tokenu koment\IeC {\'a}\IeC {\v r}e}}{18}{figure.3.1}
\contentsline {figure}{\numberline {3.2}{\ignorespaces Diagram nov\IeC {\'e} \IeC {\v r}\IeC {\'a}dky}}{18}{figure.3.2}
\contentsline {figure}{\numberline {3.3}{\ignorespaces Diagram pr\IeC {\'a}zdn\IeC {\'e}ho znaku}}{18}{figure.3.3}
\contentsline {figure}{\numberline {3.4}{\ignorespaces Diagram hexadecim\IeC {\'a}ln\IeC {\'\i } \IeC {\v c}\IeC {\'\i }slice}}{19}{figure.3.4}
\contentsline {figure}{\numberline {3.5}{\ignorespaces Diagram escapovan\IeC {\'e} sekvence}}{19}{figure.3.5}
\contentsline {figure}{\numberline {3.6}{\ignorespaces Diagram whitespace tokenu}}{19}{figure.3.6}
\contentsline {figure}{\numberline {3.7}{\ignorespaces Diagram tokenu identifik\IeC {\'a}toru}}{20}{figure.3.7}
\contentsline {figure}{\numberline {3.8}{\ignorespaces Diagram tokenu funkce}}{20}{figure.3.8}
\contentsline {figure}{\numberline {3.9}{\ignorespaces Diagram at-keyword tokenu}}{20}{figure.3.9}
\contentsline {figure}{\numberline {3.10}{\ignorespaces Diagram hash tokenu}}{21}{figure.3.10}
\contentsline {figure}{\numberline {3.11}{\ignorespaces Diagram reprezentace tokenu \IeC {\v r}et\IeC {\v e}zce}}{21}{figure.3.11}
\contentsline {figure}{\numberline {3.12}{\ignorespaces Diagram tokenu ne\IeC {\'u}pln\IeC {\v e} zadan\IeC {\'e}ho \IeC {\v r}et\IeC {\v e}zce}}{22}{figure.3.12}
\contentsline {figure}{\numberline {3.13}{\ignorespaces Diagram URL tokenu}}{22}{figure.3.13}
\contentsline {figure}{\numberline {3.14}{\ignorespaces Diagram tokenu reprezentuj\IeC {\'\i }c\IeC {\'\i } \IeC {\v c}\IeC {\'\i }slo}}{23}{figure.3.14}
\contentsline {figure}{\numberline {3.15}{\ignorespaces Diagram tokenu, p\IeC {\v r}edstavuj\IeC {\'\i }c\IeC {\'\i } \IeC {\v c}\IeC {\'\i }slo se svoj\IeC {\'\i } jednotkou}}{23}{figure.3.15}
\contentsline {figure}{\numberline {3.16}{\ignorespaces Diagram tokenu \IeC {\v c}\IeC {\'\i }sla v~procentech}}{23}{figure.3.16}
\contentsline {figure}{\numberline {3.17}{\ignorespaces Diagram tokenu u\IeC {\v z}ivatelsk\IeC {\'e} prom\IeC {\v e}nn\IeC {\'e}}}{24}{figure.3.17}
\contentsline {figure}{\numberline {3.18}{\ignorespaces Diagram tokenu definuj\IeC {\'\i }c\IeC {\'\i } mixin}}{24}{figure.3.18}
\contentsline {figure}{\numberline {3.19}{\ignorespaces Diagram tokenu t\IeC {\v r}\IeC {\'\i }dy}}{25}{figure.3.19}
\contentsline {figure}{\numberline {3.20}{\ignorespaces Diagram pravidla Stylesheet}}{30}{figure.3.20}
\contentsline {figure}{\numberline {3.21}{\ignorespaces Diagram pravidla List of Rules}}{31}{figure.3.21}
\contentsline {figure}{\numberline {3.22}{\ignorespaces Diagram pravidla At-Rule}}{31}{figure.3.22}
\contentsline {figure}{\numberline {3.23}{\ignorespaces Diagram pravidla Qualified Rule}}{31}{figure.3.23}
\contentsline {figure}{\numberline {3.24}{\ignorespaces Diagram pravidla Declaration List}}{32}{figure.3.24}
\contentsline {figure}{\numberline {3.25}{\ignorespaces Diagram pravidla Declaration}}{32}{figure.3.25}
\contentsline {figure}{\numberline {3.26}{\ignorespaces Diagram pravidla Component Value}}{32}{figure.3.26}
\contentsline {figure}{\numberline {3.27}{\ignorespaces Diagram pravidla Function}}{32}{figure.3.27}
\contentsline {figure}{\numberline {3.28}{\ignorespaces Diagram pravidla Simple Block}}{33}{figure.3.28}
\contentsline {figure}{\numberline {3.29}{\ignorespaces Diagram pravidla Variable}}{33}{figure.3.29}
\contentsline {figure}{\numberline {3.30}{\ignorespaces Diagram pravidla Mixin}}{33}{figure.3.30}
\contentsline {figure}{\numberline {3.31}{\ignorespaces Aditvivn\IeC {\'\i } m\IeC {\'\i }ch\IeC {\'a}n\IeC {\'\i } barev z~\IeC {\v c}erven\IeC {\'e}, zelen\IeC {\'e}, modr\IeC {\'e}\cite {wc}}}{40}{figure.3.31}
\contentsline {figure}{\numberline {3.32}{\ignorespaces Krychle reprezentuj\IeC {\'\i } barevn\IeC {\'y} prostor RGB modelu\cite {wc}}}{40}{figure.3.32}
\contentsline {figure}{\numberline {3.33}{\ignorespaces Subtraktivn\IeC {\'\i } m\IeC {\'\i }ch\IeC {\'a}n\IeC {\'\i } barev ze \IeC {\v z}lut\IeC {\'e}, azurov\IeC {\'e} a purpurov\IeC {\'e}\cite {wc}}}{41}{figure.3.33}
\contentsline {figure}{\numberline {3.34}{\ignorespaces Vyu\IeC {\v z}it\IeC {\'\i } CMYK modelu p\IeC {\v r}i m\IeC {\'\i }ch\IeC {\'a}n\IeC {\'\i } barev pro tisk\cite {wc}}}{41}{figure.3.34}
\contentsline {figure}{\numberline {3.35}{\ignorespaces V\IeC {\'a}lec reprezentuj\IeC {\'\i }c\IeC {\'\i } barevn\IeC {\'e} spektrum u~HSL modelu\cite {wc}}}{42}{figure.3.35}
\contentsline {figure}{\numberline {3.36}{\ignorespaces V\IeC {\'a}lec reprezentuj\IeC {\'\i }c\IeC {\'\i } barevn\IeC {\'e} spektrum u~HSV modelu\cite {wc}}}{43}{figure.3.36}
\contentsline {figure}{\numberline {3.37}{\ignorespaces Porovn\IeC {\'a}n\IeC {\'\i } vlastnost\IeC {\'\i } saturace u~HSL a HSV modelu\cite {wc}}}{43}{figure.3.37}
\contentsline {figure}{\numberline {3.38}{\ignorespaces Projekce RGB krychle do chromatick\IeC {\'e} roviny\cite {wc}}}{44}{figure.3.38}
\contentsline {figure}{\numberline {3.39}{\ignorespaces Chroma rozd\IeC {\v e}len\IeC {\'\i } v~modelech HSV a HSL\cite {wc}}}{44}{figure.3.39}
\addvspace {10\p@ }
\contentsline {figure}{\numberline {4.1}{\ignorespaces UML diagram realizace nastaven\IeC {\'\i }}}{59}{figure.4.1}
\contentsline {figure}{\numberline {4.2}{\ignorespaces UML diagram um\IeC {\'\i }st\IeC {\v e}n\IeC {\'\i } regul\IeC {\'a}rn\IeC {\'\i }ch v\IeC {\'y}raz\IeC {\r u} v~tokeniz\IeC {\'e}ru}}{60}{figure.4.2}
\contentsline {figure}{\numberline {4.3}{\ignorespaces UML diagram n\IeC {\v e}kolika t\IeC {\v r}\IeC {\'\i }d odvozen\IeC {\'y}ch od z\IeC {\'a}kladn\IeC {\'\i }ch t\IeC {\v r}\IeC {\'\i }d token\IeC {\r u}}}{61}{figure.4.3}
\contentsline {figure}{\numberline {4.4}{\ignorespaces UML diagram sch\IeC {\'e}ma tokeniz\IeC {\'e}ru}}{62}{figure.4.4}
\contentsline {figure}{\numberline {4.5}{\ignorespaces UML diagram n\IeC {\v e}kolika t\IeC {\v r}\IeC {\'\i }d odvozen\IeC {\'y}ch od z\IeC {\'a}kladn\IeC {\'\i } t\IeC {\v r}\IeC {\'\i }dy pravidel}}{63}{figure.4.5}
\contentsline {figure}{\numberline {4.6}{\ignorespaces UML diagram sch\IeC {\'e}ma parseru}}{64}{figure.4.6}
\contentsline {figure}{\numberline {4.7}{\ignorespaces UML diagram n\IeC {\'a}vrhov\IeC {\'e}ho vzoru Composite\cite {dp} v~prost\IeC {\v r}ed\IeC {\'\i } proprocesoru}}{65}{figure.4.7}
\contentsline {figure}{\numberline {4.8}{\ignorespaces Origin\IeC {\'a}ln\IeC {\'\i } obr\IeC {\'a}zek\cite {pixabay}}}{71}{figure.4.8}
\contentsline {figure}{\numberline {4.9}{\ignorespaces Obr\IeC {\'a}zek po aplikaci barevn\IeC {\'e}ho t\IeC {\'o}nov\IeC {\'a}n\IeC {\'\i }}}{71}{figure.4.9}
\contentsline {figure}{\numberline {4.10}{\ignorespaces UML diagram n\IeC {\'a}vrhov\IeC {\'e}ho vzoru Strategy\cite {dp} v~prost\IeC {\v r}ed\IeC {\'\i } preprocesoru}}{72}{figure.4.10}
\contentsline {figure}{\numberline {4.11}{\ignorespaces Zesv\IeC {\v e}tlen\IeC {\'\i } barvy}}{73}{figure.4.11}
\contentsline {figure}{\numberline {4.12}{\ignorespaces Jemn\IeC {\'e} saturov\IeC {\'a}n\IeC {\'\i } barvy}}{73}{figure.4.12}
\contentsline {figure}{\numberline {4.13}{\ignorespaces UML diagram struktury preprocesoru}}{75}{figure.4.13}
\addvspace {10\p@ }
\addvspace {10\p@ }
\contentsline {figure}{\numberline {6.1}{\ignorespaces Integrace preprocesoru do prost\IeC {\v r}en\IeC {\'\i } Webgarden}}{87}{figure.6.1}
\contentsline {figure}{\numberline {6.2}{\ignorespaces V\IeC {\'y}stup preprocesoru v~prost\IeC {\v r}ed\IeC {\'\i } Webgarden}}{87}{figure.6.2}
\contentsline {figure}{\numberline {6.3}{\ignorespaces Zobrazen\IeC {\'\i } u\IeC {\v z}ivatelsk\IeC {\'e} chyby s~jej\IeC {\'\i }m v\IeC {\'y}skytem}}{88}{figure.6.3}
\addvspace {10\p@ }
\addvspace {10\p@ }
\addvspace {10\p@ }
